0: 1 2 4 5 7 10 14 17 19 26
1: 0 2 3 14 37
2: 0 1 3 4 9 12 32
3: 1 2
4: 0 2 5 6 9 27 35 41
5: 0 4 6 7 8 18 20
6: 4 5 8 21
7: 0 5 10 11 13 18 22 33
8: 5 6 20 21 23 28
9: 2 4 12 27
10: 0 7 11 15 17 25 39
11: 7 10 13 15 16
12: 2 9 32
13: 7 11
14: 0 1 19 24 37
15: 10 11 16 34 38
16: 11 15 34
17: 0 10 25 26 29
18: 5 7 22
19: 0 14 24
20: 5 8
21: 6 8 23 30
22: 7 18 33
23: 8 21 28 30 31
24: 14 19
25: 10 17 39
26: 0 17 29 36
27: 4 9 35
28: 8 23 31
29: 17 26 36 40
30: 21 23
31: 23 28
32: 2 12
33: 7 22
34: 15 16 38
35: 4 27 41
36: 26 29 40
37: 1 14
38: 15 34
39: 10 25
40: 29 36
41: 4 35
